%YAML 1.1
%TAG !u! tag:unity3d.com,2011:
--- !u!1 &5406562308925021386
GameObject:
  m_ObjectHideFlags: 0
  m_CorrespondingSourceObject: {fileID: 0}
  m_PrefabInstance: {fileID: 0}
  m_PrefabAsset: {fileID: 0}
  serializedVersion: 6
  m_Component:
  - component: {fileID: 6207057132577752760}
  - component: {fileID: 4101067653419440801}
  m_Layer: 0
  m_Name: ToSpawn
  m_TagString: Untagged
  m_Icon: {fileID: 0}
  m_NavMeshLayer: 0
  m_StaticEditorFlags: 0
  m_IsActive: 1
--- !u!4 &6207057132577752760
Transform:
  m_ObjectHideFlags: 0
  m_CorrespondingSourceObject: {fileID: 0}
  m_PrefabInstance: {fileID: 0}
  m_PrefabAsset: {fileID: 0}
  m_GameObject: {fileID: 5406562308925021386}
  m_LocalRotation: {x: 0, y: 0, z: 0, w: 1}
  m_LocalPosition: {x: 0, y: 0, z: 0}
  m_LocalScale: {x: 1, y: 1, z: 1}
  m_Children:
  - {fileID: 8299211353760308833}
  m_Father: {fileID: 0}
  m_RootOrder: 0
  m_LocalEulerAnglesHint: {x: 0, y: 0, z: 0}
--- !u!114 &4101067653419440801
MonoBehaviour:
  m_ObjectHideFlags: 0
  m_CorrespondingSourceObject: {fileID: 0}
  m_PrefabInstance: {fileID: 0}
  m_PrefabAsset: {fileID: 0}
  m_GameObject: {fileID: 5406562308925021386}
  m_Enabled: 1
  m_EditorHideFlags: 0
  m_Script: {fileID: 11500000, guid: 00161fae8cdf950419629a50ec359921, type: 3}
  m_Name: 
  m_EditorClassIdentifier: 
--- !u!1001 &7324650605518010675
PrefabInstance:
  m_ObjectHideFlags: 0
  serializedVersion: 2
  m_Modification:
    m_TransformParent: {fileID: 6207057132577752760}
    m_Modifications:
    - target: {fileID: 2106935517001706806, guid: b55a162ffd66b7f41ab340cfa19814f7,
        type: 3}
      propertyPath: m_Name
      value: Random position
      objectReference: {fileID: 0}
    - target: {fileID: 1624350490970400594, guid: b55a162ffd66b7f41ab340cfa19814f7,
        type: 3}
      propertyPath: m_LocalPosition.x
      value: 0
      objectReference: {fileID: 0}
    - target: {fileID: 1624350490970400594, guid: b55a162ffd66b7f41ab340cfa19814f7,
        type: 3}
      propertyPath: m_LocalPosition.y
      value: 0
      objectReference: {fileID: 0}
    - target: {fileID: 1624350490970400594, guid: b55a162ffd66b7f41ab340cfa19814f7,
        type: 3}
      propertyPath: m_LocalPosition.z
      value: 0
      objectReference: {fileID: 0}
    - target: {fileID: 1624350490970400594, guid: b55a162ffd66b7f41ab340cfa19814f7,
        type: 3}
      propertyPath: m_LocalRotation.x
      value: -0
      objectReference: {fileID: 0}
    - target: {fileID: 1624350490970400594, guid: b55a162ffd66b7f41ab340cfa19814f7,
        type: 3}
      propertyPath: m_LocalRotation.y
      value: -0
      objectReference: {fileID: 0}
    - target: {fileID: 1624350490970400594, guid: b55a162ffd66b7f41ab340cfa19814f7,
        type: 3}
      propertyPath: m_LocalRotation.z
      value: -0
      objectReference: {fileID: 0}
    - target: {fileID: 1624350490970400594, guid: b55a162ffd66b7f41ab340cfa19814f7,
        type: 3}
      propertyPath: m_LocalRotation.w
      value: 1
      objectReference: {fileID: 0}
    - target: {fileID: 1624350490970400594, guid: b55a162ffd66b7f41ab340cfa19814f7,
        type: 3}
      propertyPath: m_RootOrder
      value: 0
      objectReference: {fileID: 0}
    - target: {fileID: 1624350490970400594, guid: b55a162ffd66b7f41ab340cfa19814f7,
        type: 3}
      propertyPath: m_LocalEulerAnglesHint.x
      value: 0
      objectReference: {fileID: 0}
    - target: {fileID: 1624350490970400594, guid: b55a162ffd66b7f41ab340cfa19814f7,
        type: 3}
      propertyPath: m_LocalEulerAnglesHint.y
      value: 0
      objectReference: {fileID: 0}
    - target: {fileID: 1624350490970400594, guid: b55a162ffd66b7f41ab340cfa19814f7,
        type: 3}
      propertyPath: m_LocalEulerAnglesHint.z
      value: 0
      objectReference: {fileID: 0}
    - target: {fileID: 1860769435325739153, guid: b55a162ffd66b7f41ab340cfa19814f7,
        type: 3}
      propertyPath: placesTaken
      value: 
      objectReference: {fileID: 4101067653419440801}
    - target: {fileID: 6115878923740773567, guid: b55a162ffd66b7f41ab340cfa19814f7,
        type: 3}
      propertyPath: m_Icon
      value: 
      objectReference: {fileID: -5487077368411116049, guid: 0000000000000000d000000000000000,
        type: 0}
    - target: {fileID: 6323907911934566871, guid: b55a162ffd66b7f41ab340cfa19814f7,
        type: 3}
      propertyPath: m_Icon
      value: 
      objectReference: {fileID: -5487077368411116049, guid: 0000000000000000d000000000000000,
        type: 0}
    m_RemovedComponents: []
  m_SourcePrefab: {fileID: 100100000, guid: b55a162ffd66b7f41ab340cfa19814f7, type: 3}
--- !u!4 &8299211353760308833 stripped
Transform:
  m_CorrespondingSourceObject: {fileID: 1624350490970400594, guid: b55a162ffd66b7f41ab340cfa19814f7,
    type: 3}
  m_PrefabInstance: {fileID: 7324650605518010675}
  m_PrefabAsset: {fileID: 0}
